{
  "credit": "Made with Blockbench",
  "elements": [
    {
      "name": "voxel",
      "from": [
        0.33333,
        0.33333,
        5
      ],
      "to": [
        0.66667,
        0.66667,
        5.33333
      ],
      "faces": {
        "north": {
          "uv": [
            0.25,
            0.25,
            0.75,
            0.75
          ],
          "texture": "#0"
        },
        "east": {
          "uv": [
            0.25,
            0.25,
            0.75,
            0.75
          ],
          "texture": "#0"
        },
        "south": {
          "uv": [
            0.25,
            0.25,
            0.75,
            0.75
          ],
          "texture": "#0"
        },
        "west": {
          "uv": [
            0.25,
            0.25,
            0.75,
            0.75
          ],
          "texture": "#0"
        },
        "up": {
          "uv": [
            0.25,
            0.25,
            0.75,
            0.75
          ],
          "texture": "#0"
        },
        "down": {
          "uv": [
            0.25,
            0.25,
            0.75,
            0.75
          ],
          "texture": "#0"
        }
      }
    },
    {
      "name": "voxel",
      "from": [
        3.33333,
        1,
        5
      ],
      "to": [
        3.66667,
        1.33333,
        5.33333
      ],
      "faces": {
        "north": {
          "uv": [
            0.25,
            0.25,
            0.75,
            0.75
          ],
          "texture": "#0"
        },
        "east": {
          "uv": [
            0.25,
            0.25,
            0.75,
            0.75
          ],
          "texture": "#0"
        },
        "south": {
          "uv": [
            0.25,
            0.25,
            0.75,
            0.75
          ],
          "texture": "#0"
        },
        "west": {
          "uv": [
            0.25,
            0.25,
            0.75,
            0.75
          ],
          "texture": "#0"
        },
        "up": {
          "uv": [
            0.25,
            0.25,
            0.75,
            0.75
          ],
          "texture": "#0"
        },
        "down": {
          "uv": [
            0.25,
            0.25,
            0.75,
            0.75
          ],
          "texture": "#0"
        }
      }
    },
    {
      "name": "voxel",
      "from": [
        1.66667,
        0.66667,
        5
      ],
      "to": [
        2.33333,
        1,
        5.33333
      ],
      "faces": {
        "north": {
          "uv": [
            0.25,
            0.25,
            0.75,
            0.75
          ],
          "texture": "#0"
        },
        "east": {
          "uv": [
            0.25,
            0.25,
            0.75,
            0.75
          ],
          "texture": "#0"
        },
        "south": {
          "uv": [
            0.25,
            0.25,
            0.75,
            0.75
          ],
          "texture": "#0"
        },
        "west": {
          "uv": [
            0.25,
            0.25,
            0.75,
            0.75
          ],
          "texture": "#0"
        },
        "up": {
          "uv": [
            0.25,
            0.25,
            0.75,
            0.75
          ],
          "texture": "#0"
        },
        "down": {
          "uv": [
            0.25,
            0.25,
            0.75,
            0.75
          ],
          "texture": "#0"
        }
      }
    },
    {
      "name": "voxel",
      "from": [
        1.66667,
        0,
        5
      ],
      "to": [
        6,
        0.33333,
        5.33333
      ],
      "faces": {
        "north": {
          "uv": [
            0.25,
            0.25,
            0.75,
            0.75
          ],
          "texture": "#0"
        },
        "east": {
          "uv": [
            0.25,
            0.25,
            0.75,
            0.75
          ],
          "texture": "#0"
        },
        "south": {
          "uv": [
            0.25,
            0.25,
            0.75,
            0.75
          ],
          "texture": "#0"
        },
        "west": {
          "uv": [
            0.25,
            0.25,
            0.75,
            0.75
          ],
          "texture": "#0"
        },
        "up": {
          "uv": [
            0.25,
            0.25,
            0.75,
            0.75
          ],
          "texture": "#0"
        },
        "down": {
          "uv": [
            0.25,
            0.25,
            0.75,
            0.75
          ],
          "texture": "#0"
        }
      }
    },
    {
      "name": "voxel",
      "from": [
        0,
        0,
        5
      ],
      "to": [
        0.33333,
        0.33333,
        5.33333
      ],
      "faces": {
        "north": {
          "uv": [
            0.25,
            0.25,
            0.75,
            0.75
          ],
          "texture": "#0"
        },
        "east": {
          "uv": [
            0.25,
            0.25,
            0.75,
            0.75
          ],
          "texture": "#0"
        },
        "south": {
          "uv": [
            0.25,
            0.25,
            0.75,
            0.75
          ],
          "texture": "#0"
        },
        "west": {
          "uv": [
            0.25,
            0.25,
            0.75,
            0.75
          ],
          "texture": "#0"
        },
        "up": {
          "uv": [
            0.25,
            0.25,
            0.75,
            0.75
          ],
          "texture": "#0"
        },
        "down": {
          "uv": [
            0.25,
            0.25,
            0.75,
            0.75
          ],
          "texture": "#0"
        }
      }
    },
    {
      "name": "voxel",
      "from": [
        3.66667,
        1,
        5
      ],
      "to": [
        6,
        1.33333,
        5.66667
      ],
      "faces": {
        "north": {
          "uv": [
            0.25,
            0.25,
            0.75,
            0.75
          ],
          "texture": "#0"
        },
        "east": {
          "uv": [
            0.25,
            0.25,
            0.75,
            0.75
          ],
          "texture": "#0"
        },
        "south": {
          "uv": [
            0.25,
            0.25,
            0.75,
            0.75
          ],
          "texture": "#0"
        },
        "west": {
          "uv": [
            0.25,
            0.25,
            0.75,
            0.75
          ],
          "texture": "#0"
        },
        "up": {
          "uv": [
            0.25,
            0.25,
            0.75,
            0.75
          ],
          "texture": "#0"
        },
        "down": {
          "uv": [
            0.25,
            0.25,
            0.75,
            0.75
          ],
          "texture": "#0"
        }
      }
    },
    {
      "name": "voxel",
      "from": [
        2.33333,
        0.66667,
        5
      ],
      "to": [
        6,
        1,
        5.66667
      ],
      "faces": {
        "north": {
          "uv": [
            0.25,
            0.25,
            0.75,
            0.75
          ],
          "texture": "#0"
        },
        "east": {
          "uv": [
            0.25,
            0.25,
            0.75,
            0.75
          ],
          "texture": "#0"
        },
        "south": {
          "uv": [
            0.25,
            0.25,
            0.75,
            0.75
          ],
          "texture": "#0"
        },
        "west": {
          "uv": [
            0.25,
            0.25,
            0.75,
            0.75
          ],
          "texture": "#0"
        },
        "up": {
          "uv": [
            0.25,
            0.25,
            0.75,
            0.75
          ],
          "texture": "#0"
        },
        "down": {
          "uv": [
            0.25,
            0.25,
            0.75,
            0.75
          ],
          "texture": "#0"
        }
      }
    },
    {
      "name": "voxel",
      "from": [
        0.66667,
        0.33333,
        5
      ],
      "to": [
        6,
        0.66667,
        5.66667
      ],
      "faces": {
        "north": {
          "uv": [
            0.25,
            0.25,
            0.75,
            0.75
          ],
          "texture": "#0"
        },
        "east": {
          "uv": [
            0.25,
            0.25,
            0.75,
            0.75
          ],
          "texture": "#0"
        },
        "south": {
          "uv": [
            0.25,
            0.25,
            0.75,
            0.75
          ],
          "texture": "#0"
        },
        "west": {
          "uv": [
            0.25,
            0.25,
            0.75,
            0.75
          ],
          "texture": "#0"
        },
        "up": {
          "uv": [
            0.25,
            0.25,
            0.75,
            0.75
          ],
          "texture": "#0"
        },
        "down": {
          "uv": [
            0.25,
            0.25,
            0.75,
            0.75
          ],
          "texture": "#0"
        }
      }
    },
    {
      "name": "voxel",
      "from": [
        0.33333,
        0,
        5
      ],
      "to": [
        1.66667,
        0.33333,
        5.66667
      ],
      "faces": {
        "north": {
          "uv": [
            0.25,
            0.25,
            0.75,
            0.75
          ],
          "texture": "#0"
        },
        "east": {
          "uv": [
            0.25,
            0.25,
            0.75,
            0.75
          ],
          "texture": "#0"
        },
        "south": {
          "uv": [
            0.25,
            0.25,
            0.75,
            0.75
          ],
          "texture": "#0"
        },
        "west": {
          "uv": [
            0.25,
            0.25,
            0.75,
            0.75
          ],
          "texture": "#0"
        },
        "up": {
          "uv": [
            0.25,
            0.25,
            0.75,
            0.75
          ],
          "texture": "#0"
        },
        "down": {
          "uv": [
            0.25,
            0.25,
            0.75,
            0.75
          ],
          "texture": "#0"
        }
      }
    },
    {
      "name": "voxel",
      "from": [
        0.33333,
        0,
        6
      ],
      "to": [
        1.66667,
        0.33333,
        6.66667
      ],
      "faces": {
        "north": {
          "uv": [
            0.25,
            0.25,
            0.75,
            0.75
          ],
          "texture": "#0"
        },
        "east": {
          "uv": [
            0.25,
            0.25,
            0.75,
            0.75
          ],
          "texture": "#0"
        },
        "south": {
          "uv": [
            0.25,
            0.25,
            0.75,
            0.75
          ],
          "texture": "#0"
        },
        "west": {
          "uv": [
            0.25,
            0.25,
            0.75,
            0.75
          ],
          "texture": "#0"
        },
        "up": {
          "uv": [
            0.25,
            0.25,
            0.75,
            0.75
          ],
          "texture": "#0"
        },
        "down": {
          "uv": [
            0.25,
            0.25,
            0.75,
            0.75
          ],
          "texture": "#0"
        }
      }
    },
    {
      "name": "voxel",
      "from": [
        3.33333,
        1,
        6
      ],
      "to": [
        3.66667,
        1.33333,
        6.33333
      ],
      "faces": {
        "north": {
          "uv": [
            0.25,
            0.25,
            0.75,
            0.75
          ],
          "texture": "#0"
        },
        "east": {
          "uv": [
            0.25,
            0.25,
            0.75,
            0.75
          ],
          "texture": "#0"
        },
        "south": {
          "uv": [
            0.25,
            0.25,
            0.75,
            0.75
          ],
          "texture": "#0"
        },
        "west": {
          "uv": [
            0.25,
            0.25,
            0.75,
            0.75
          ],
          "texture": "#0"
        },
        "up": {
          "uv": [
            0.25,
            0.25,
            0.75,
            0.75
          ],
          "texture": "#0"
        },
        "down": {
          "uv": [
            0.25,
            0.25,
            0.75,
            0.75
          ],
          "texture": "#0"
        }
      }
    },
    {
      "name": "voxel",
      "from": [
        1.66667,
        0.66667,
        6
      ],
      "to": [
        2.33333,
        1,
        6.33333
      ],
      "faces": {
        "north": {
          "uv": [
            0.25,
            0.25,
            0.75,
            0.75
          ],
          "texture": "#0"
        },
        "east": {
          "uv": [
            0.25,
            0.25,
            0.75,
            0.75
          ],
          "texture": "#0"
        },
        "south": {
          "uv": [
            0.25,
            0.25,
            0.75,
            0.75
          ],
          "texture": "#0"
        },
        "west": {
          "uv": [
            0.25,
            0.25,
            0.75,
            0.75
          ],
          "texture": "#0"
        },
        "up": {
          "uv": [
            0.25,
            0.25,
            0.75,
            0.75
          ],
          "texture": "#0"
        },
        "down": {
          "uv": [
            0.25,
            0.25,
            0.75,
            0.75
          ],
          "texture": "#0"
        }
      }
    },
    {
      "name": "voxel",
      "from": [
        0.33333,
        0.33333,
        6
      ],
      "to": [
        0.66667,
        0.66667,
        6.33333
      ],
      "faces": {
        "north": {
          "uv": [
            0.25,
            0.25,
            0.75,
            0.75
          ],
          "texture": "#0"
        },
        "east": {
          "uv": [
            0.25,
            0.25,
            0.75,
            0.75
          ],
          "texture": "#0"
        },
        "south": {
          "uv": [
            0.25,
            0.25,
            0.75,
            0.75
          ],
          "texture": "#0"
        },
        "west": {
          "uv": [
            0.25,
            0.25,
            0.75,
            0.75
          ],
          "texture": "#0"
        },
        "up": {
          "uv": [
            0.25,
            0.25,
            0.75,
            0.75
          ],
          "texture": "#0"
        },
        "down": {
          "uv": [
            0.25,
            0.25,
            0.75,
            0.75
          ],
          "texture": "#0"
        }
      }
    },
    {
      "name": "voxel",
      "from": [
        1.66667,
        0,
        6
      ],
      "to": [
        6,
        0.33333,
        6.33333
      ],
      "faces": {
        "north": {
          "uv": [
            0.25,
            0.25,
            0.75,
            0.75
          ],
          "texture": "#0"
        },
        "east": {
          "uv": [
            0.25,
            0.25,
            0.75,
            0.75
          ],
          "texture": "#0"
        },
        "south": {
          "uv": [
            0.25,
            0.25,
            0.75,
            0.75
          ],
          "texture": "#0"
        },
        "west": {
          "uv": [
            0.25,
            0.25,
            0.75,
            0.75
          ],
          "texture": "#0"
        },
        "up": {
          "uv": [
            0.25,
            0.25,
            0.75,
            0.75
          ],
          "texture": "#0"
        },
        "down": {
          "uv": [
            0.25,
            0.25,
            0.75,
            0.75
          ],
          "texture": "#0"
        }
      }
    },
    {
      "name": "voxel",
      "from": [
        0,
        0,
        6
      ],
      "to": [
        0.33333,
        0.33333,
        6.33333
      ],
      "faces": {
        "north": {
          "uv": [
            0.25,
            0.25,
            0.75,
            0.75
          ],
          "texture": "#0"
        },
        "east": {
          "uv": [
            0.25,
            0.25,
            0.75,
            0.75
          ],
          "texture": "#0"
        },
        "south": {
          "uv": [
            0.25,
            0.25,
            0.75,
            0.75
          ],
          "texture": "#0"
        },
        "west": {
          "uv": [
            0.25,
            0.25,
            0.75,
            0.75
          ],
          "texture": "#0"
        },
        "up": {
          "uv": [
            0.25,
            0.25,
            0.75,
            0.75
          ],
          "texture": "#0"
        },
        "down": {
          "uv": [
            0.25,
            0.25,
            0.75,
            0.75
          ],
          "texture": "#0"
        }
      }
    },
    {
      "name": "voxel",
      "from": [
        3.66667,
        1,
        6
      ],
      "to": [
        6,
        1.33333,
        6.66667
      ],
      "faces": {
        "north": {
          "uv": [
            0.25,
            0.25,
            0.75,
            0.75
          ],
          "texture": "#0"
        },
        "east": {
          "uv": [
            0.25,
            0.25,
            0.75,
            0.75
          ],
          "texture": "#0"
        },
        "south": {
          "uv": [
            0.25,
            0.25,
            0.75,
            0.75
          ],
          "texture": "#0"
        },
        "west": {
          "uv": [
            0.25,
            0.25,
            0.75,
            0.75
          ],
          "texture": "#0"
        },
        "up": {
          "uv": [
            0.25,
            0.25,
            0.75,
            0.75
          ],
          "texture": "#0"
        },
        "down": {
          "uv": [
            0.25,
            0.25,
            0.75,
            0.75
          ],
          "texture": "#0"
        }
      }
    },
    {
      "name": "voxel",
      "from": [
        5.5,
        0,
        5.16667
      ],
      "to": [
        7.16667,
        0.33333,
        8.5
      ],
      "rotation": {
        "angle": 0,
        "axis": "y",
        "origin": [
          6.83333,
          0.16667,
          6.33333
        ]
      },
      "faces": {
        "north": {
          "uv": [
            0.25,
            0.25,
            0.75,
            0.75
          ],
          "texture": "#0"
        },
        "east": {
          "uv": [
            0.25,
            0.25,
            0.75,
            0.75
          ],
          "texture": "#0"
        },
        "south": {
          "uv": [
            0.25,
            0.25,
            0.75,
            0.75
          ],
          "texture": "#0"
        },
        "west": {
          "uv": [
            0.25,
            0.25,
            0.75,
            0.75
          ],
          "texture": "#0"
        },
        "up": {
          "uv": [
            0.25,
            0.25,
            0.75,
            0.75
          ],
          "rotation": 270,
          "texture": "#0"
        },
        "down": {
          "uv": [
            0.25,
            0.25,
            0.75,
            0.75
          ],
          "rotation": 90,
          "texture": "#0"
        }
      }
    },
    {
      "name": "voxel",
      "from": [
        2.33333,
        0.66667,
        6
      ],
      "to": [
        6,
        1,
        6.66667
      ],
      "faces": {
        "north": {
          "uv": [
            0.25,
            0.25,
            0.75,
            0.75
          ],
          "texture": "#0"
        },
        "east": {
          "uv": [
            0.25,
            0.25,
            0.75,
            0.75
          ],
          "texture": "#0"
        },
        "south": {
          "uv": [
            0.25,
            0.25,
            0.75,
            0.75
          ],
          "texture": "#0"
        },
        "west": {
          "uv": [
            0.25,
            0.25,
            0.75,
            0.75
          ],
          "texture": "#0"
        },
        "up": {
          "uv": [
            0.25,
            0.25,
            0.75,
            0.75
          ],
          "texture": "#0"
        },
        "down": {
          "uv": [
            0.25,
            0.25,
            0.75,
            0.75
          ],
          "texture": "#0"
        }
      }
    },
    {
      "name": "voxel",
      "from": [
        0.66667,
        0.33333,
        6
      ],
      "to": [
        6,
        0.66667,
        6.66667
      ],
      "faces": {
        "north": {
          "uv": [
            0.25,
            0.25,
            0.75,
            0.75
          ],
          "texture": "#0"
        },
        "east": {
          "uv": [
            0.25,
            0.25,
            0.75,
            0.75
          ],
          "texture": "#0"
        },
        "south": {
          "uv": [
            0.25,
            0.25,
            0.75,
            0.75
          ],
          "texture": "#0"
        },
        "west": {
          "uv": [
            0.25,
            0.25,
            0.75,
            0.75
          ],
          "texture": "#0"
        },
        "up": {
          "uv": [
            0.25,
            0.25,
            0.75,
            0.75
          ],
          "texture": "#0"
        },
        "down": {
          "uv": [
            0.25,
            0.25,
            0.75,
            0.75
          ],
          "texture": "#0"
        }
      }
    },
    {
      "name": "voxel",
      "from": [
        0.33333,
        0,
        7
      ],
      "to": [
        1.66667,
        0.33333,
        7.66667
      ],
      "faces": {
        "north": {
          "uv": [
            0.25,
            0.25,
            0.75,
            0.75
          ],
          "texture": "#0"
        },
        "east": {
          "uv": [
            0.25,
            0.25,
            0.75,
            0.75
          ],
          "texture": "#0"
        },
        "south": {
          "uv": [
            0.25,
            0.25,
            0.75,
            0.75
          ],
          "texture": "#0"
        },
        "west": {
          "uv": [
            0.25,
            0.25,
            0.75,
            0.75
          ],
          "texture": "#0"
        },
        "up": {
          "uv": [
            0.25,
            0.25,
            0.75,
            0.75
          ],
          "texture": "#0"
        },
        "down": {
          "uv": [
            0.25,
            0.25,
            0.75,
            0.75
          ],
          "texture": "#0"
        }
      }
    },
    {
      "name": "voxel",
      "from": [
        3.33333,
        1,
        7
      ],
      "to": [
        3.66667,
        1.33333,
        7.33333
      ],
      "faces": {
        "north": {
          "uv": [
            0.25,
            0.25,
            0.75,
            0.75
          ],
          "texture": "#0"
        },
        "east": {
          "uv": [
            0.25,
            0.25,
            0.75,
            0.75
          ],
          "texture": "#0"
        },
        "south": {
          "uv": [
            0.25,
            0.25,
            0.75,
            0.75
          ],
          "texture": "#0"
        },
        "west": {
          "uv": [
            0.25,
            0.25,
            0.75,
            0.75
          ],
          "texture": "#0"
        },
        "up": {
          "uv": [
            0.25,
            0.25,
            0.75,
            0.75
          ],
          "texture": "#0"
        },
        "down": {
          "uv": [
            0.25,
            0.25,
            0.75,
            0.75
          ],
          "texture": "#0"
        }
      }
    },
    {
      "name": "voxel",
      "from": [
        1.66667,
        0.66667,
        7
      ],
      "to": [
        2.33333,
        1,
        7.33333
      ],
      "faces": {
        "north": {
          "uv": [
            0.25,
            0.25,
            0.75,
            0.75
          ],
          "texture": "#0"
        },
        "east": {
          "uv": [
            0.25,
            0.25,
            0.75,
            0.75
          ],
          "texture": "#0"
        },
        "south": {
          "uv": [
            0.25,
            0.25,
            0.75,
            0.75
          ],
          "texture": "#0"
        },
        "west": {
          "uv": [
            0.25,
            0.25,
            0.75,
            0.75
          ],
          "texture": "#0"
        },
        "up": {
          "uv": [
            0.25,
            0.25,
            0.75,
            0.75
          ],
          "texture": "#0"
        },
        "down": {
          "uv": [
            0.25,
            0.25,
            0.75,
            0.75
          ],
          "texture": "#0"
        }
      }
    },
    {
      "name": "voxel",
      "from": [
        0.33333,
        0.33333,
        7
      ],
      "to": [
        0.66667,
        0.66667,
        7.33333
      ],
      "faces": {
        "north": {
          "uv": [
            0.25,
            0.25,
            0.75,
            0.75
          ],
          "texture": "#0"
        },
        "east": {
          "uv": [
            0.25,
            0.25,
            0.75,
            0.75
          ],
          "texture": "#0"
        },
        "south": {
          "uv": [
            0.25,
            0.25,
            0.75,
            0.75
          ],
          "texture": "#0"
        },
        "west": {
          "uv": [
            0.25,
            0.25,
            0.75,
            0.75
          ],
          "texture": "#0"
        },
        "up": {
          "uv": [
            0.25,
            0.25,
            0.75,
            0.75
          ],
          "texture": "#0"
        },
        "down": {
          "uv": [
            0.25,
            0.25,
            0.75,
            0.75
          ],
          "texture": "#0"
        }
      }
    },
    {
      "name": "voxel",
      "from": [
        1.66667,
        0,
        7
      ],
      "to": [
        6,
        0.33333,
        7.33333
      ],
      "faces": {
        "north": {
          "uv": [
            0.25,
            0.25,
            0.75,
            0.75
          ],
          "texture": "#0"
        },
        "east": {
          "uv": [
            0.25,
            0.25,
            0.75,
            0.75
          ],
          "texture": "#0"
        },
        "south": {
          "uv": [
            0.25,
            0.25,
            0.75,
            0.75
          ],
          "texture": "#0"
        },
        "west": {
          "uv": [
            0.25,
            0.25,
            0.75,
            0.75
          ],
          "texture": "#0"
        },
        "up": {
          "uv": [
            0.25,
            0.25,
            0.75,
            0.75
          ],
          "texture": "#0"
        },
        "down": {
          "uv": [
            0.25,
            0.25,
            0.75,
            0.75
          ],
          "texture": "#0"
        }
      }
    },
    {
      "name": "voxel",
      "from": [
        0,
        0,
        7
      ],
      "to": [
        0.33333,
        0.33333,
        7.33333
      ],
      "faces": {
        "north": {
          "uv": [
            0.25,
            0.25,
            0.75,
            0.75
          ],
          "texture": "#0"
        },
        "east": {
          "uv": [
            0.25,
            0.25,
            0.75,
            0.75
          ],
          "texture": "#0"
        },
        "south": {
          "uv": [
            0.25,
            0.25,
            0.75,
            0.75
          ],
          "texture": "#0"
        },
        "west": {
          "uv": [
            0.25,
            0.25,
            0.75,
            0.75
          ],
          "texture": "#0"
        },
        "up": {
          "uv": [
            0.25,
            0.25,
            0.75,
            0.75
          ],
          "texture": "#0"
        },
        "down": {
          "uv": [
            0.25,
            0.25,
            0.75,
            0.75
          ],
          "texture": "#0"
        }
      }
    },
    {
      "name": "voxel",
      "from": [
        3.66667,
        1,
        7
      ],
      "to": [
        6,
        1.33333,
        7.66667
      ],
      "faces": {
        "north": {
          "uv": [
            0.25,
            0.25,
            0.75,
            0.75
          ],
          "texture": "#0"
        },
        "east": {
          "uv": [
            0.25,
            0.25,
            0.75,
            0.75
          ],
          "texture": "#0"
        },
        "south": {
          "uv": [
            0.25,
            0.25,
            0.75,
            0.75
          ],
          "texture": "#0"
        },
        "west": {
          "uv": [
            0.25,
            0.25,
            0.75,
            0.75
          ],
          "texture": "#0"
        },
        "up": {
          "uv": [
            0.25,
            0.25,
            0.75,
            0.75
          ],
          "texture": "#0"
        },
        "down": {
          "uv": [
            0.25,
            0.25,
            0.75,
            0.75
          ],
          "texture": "#0"
        }
      }
    },
    {
      "name": "voxel",
      "from": [
        2.33333,
        0.66667,
        7
      ],
      "to": [
        6,
        1,
        7.66667
      ],
      "faces": {
        "north": {
          "uv": [
            0.25,
            0.25,
            0.75,
            0.75
          ],
          "texture": "#0"
        },
        "east": {
          "uv": [
            0.25,
            0.25,
            0.75,
            0.75
          ],
          "texture": "#0"
        },
        "south": {
          "uv": [
            0.25,
            0.25,
            0.75,
            0.75
          ],
          "texture": "#0"
        },
        "west": {
          "uv": [
            0.25,
            0.25,
            0.75,
            0.75
          ],
          "texture": "#0"
        },
        "up": {
          "uv": [
            0.25,
            0.25,
            0.75,
            0.75
          ],
          "texture": "#0"
        },
        "down": {
          "uv": [
            0.25,
            0.25,
            0.75,
            0.75
          ],
          "texture": "#0"
        }
      }
    },
    {
      "name": "voxel",
      "from": [
        0.66667,
        0.33333,
        7
      ],
      "to": [
        6,
        0.66667,
        7.66667
      ],
      "faces": {
        "north": {
          "uv": [
            0.25,
            0.25,
            0.75,
            0.75
          ],
          "texture": "#0"
        },
        "east": {
          "uv": [
            0.25,
            0.25,
            0.75,
            0.75
          ],
          "texture": "#0"
        },
        "south": {
          "uv": [
            0.25,
            0.25,
            0.75,
            0.75
          ],
          "texture": "#0"
        },
        "west": {
          "uv": [
            0.25,
            0.25,
            0.75,
            0.75
          ],
          "texture": "#0"
        },
        "up": {
          "uv": [
            0.25,
            0.25,
            0.75,
            0.75
          ],
          "texture": "#0"
        },
        "down": {
          "uv": [
            0.25,
            0.25,
            0.75,
            0.75
          ],
          "texture": "#0"
        }
      }
    },
    {
      "name": "voxel",
      "from": [
        0.33333,
        0,
        8
      ],
      "to": [
        1.66667,
        0.33333,
        8.66667
      ],
      "faces": {
        "north": {
          "uv": [
            0.25,
            0.25,
            0.75,
            0.75
          ],
          "texture": "#0"
        },
        "east": {
          "uv": [
            0.25,
            0.25,
            0.75,
            0.75
          ],
          "texture": "#0"
        },
        "south": {
          "uv": [
            0.25,
            0.25,
            0.75,
            0.75
          ],
          "texture": "#0"
        },
        "west": {
          "uv": [
            0.25,
            0.25,
            0.75,
            0.75
          ],
          "texture": "#0"
        },
        "up": {
          "uv": [
            0.25,
            0.25,
            0.75,
            0.75
          ],
          "texture": "#0"
        },
        "down": {
          "uv": [
            0.25,
            0.25,
            0.75,
            0.75
          ],
          "texture": "#0"
        }
      }
    },
    {
      "name": "voxel",
      "from": [
        3.33333,
        1,
        8
      ],
      "to": [
        3.66667,
        1.33333,
        8.33333
      ],
      "faces": {
        "north": {
          "uv": [
            0.25,
            0.25,
            0.75,
            0.75
          ],
          "texture": "#0"
        },
        "east": {
          "uv": [
            0.25,
            0.25,
            0.75,
            0.75
          ],
          "texture": "#0"
        },
        "south": {
          "uv": [
            0.25,
            0.25,
            0.75,
            0.75
          ],
          "texture": "#0"
        },
        "west": {
          "uv": [
            0.25,
            0.25,
            0.75,
            0.75
          ],
          "texture": "#0"
        },
        "up": {
          "uv": [
            0.25,
            0.25,
            0.75,
            0.75
          ],
          "texture": "#0"
        },
        "down": {
          "uv": [
            0.25,
            0.25,
            0.75,
            0.75
          ],
          "texture": "#0"
        }
      }
    },
    {
      "name": "voxel",
      "from": [
        1.66667,
        0.66667,
        8
      ],
      "to": [
        2.33333,
        1,
        8.33333
      ],
      "faces": {
        "north": {
          "uv": [
            0.25,
            0.25,
            0.75,
            0.75
          ],
          "texture": "#0"
        },
        "east": {
          "uv": [
            0.25,
            0.25,
            0.75,
            0.75
          ],
          "texture": "#0"
        },
        "south": {
          "uv": [
            0.25,
            0.25,
            0.75,
            0.75
          ],
          "texture": "#0"
        },
        "west": {
          "uv": [
            0.25,
            0.25,
            0.75,
            0.75
          ],
          "texture": "#0"
        },
        "up": {
          "uv": [
            0.25,
            0.25,
            0.75,
            0.75
          ],
          "texture": "#0"
        },
        "down": {
          "uv": [
            0.25,
            0.25,
            0.75,
            0.75
          ],
          "texture": "#0"
        }
      }
    },
    {
      "name": "voxel",
      "from": [
        0.33333,
        0.33333,
        8
      ],
      "to": [
        0.66667,
        0.66667,
        8.33333
      ],
      "faces": {
        "north": {
          "uv": [
            0.25,
            0.25,
            0.75,
            0.75
          ],
          "texture": "#0"
        },
        "east": {
          "uv": [
            0.25,
            0.25,
            0.75,
            0.75
          ],
          "texture": "#0"
        },
        "south": {
          "uv": [
            0.25,
            0.25,
            0.75,
            0.75
          ],
          "texture": "#0"
        },
        "west": {
          "uv": [
            0.25,
            0.25,
            0.75,
            0.75
          ],
          "texture": "#0"
        },
        "up": {
          "uv": [
            0.25,
            0.25,
            0.75,
            0.75
          ],
          "texture": "#0"
        },
        "down": {
          "uv": [
            0.25,
            0.25,
            0.75,
            0.75
          ],
          "texture": "#0"
        }
      }
    },
    {
      "name": "voxel",
      "from": [
        1.66667,
        0,
        8
      ],
      "to": [
        6,
        0.33333,
        8.33333
      ],
      "faces": {
        "north": {
          "uv": [
            0.25,
            0.25,
            0.75,
            0.75
          ],
          "texture": "#0"
        },
        "east": {
          "uv": [
            0.25,
            0.25,
            0.75,
            0.75
          ],
          "texture": "#0"
        },
        "south": {
          "uv": [
            0.25,
            0.25,
            0.75,
            0.75
          ],
          "texture": "#0"
        },
        "west": {
          "uv": [
            0.25,
            0.25,
            0.75,
            0.75
          ],
          "texture": "#0"
        },
        "up": {
          "uv": [
            0.25,
            0.25,
            0.75,
            0.75
          ],
          "texture": "#0"
        },
        "down": {
          "uv": [
            0.25,
            0.25,
            0.75,
            0.75
          ],
          "texture": "#0"
        }
      }
    },
    {
      "name": "voxel",
      "from": [
        0,
        0,
        8
      ],
      "to": [
        0.33333,
        0.33333,
        8.33333
      ],
      "faces": {
        "north": {
          "uv": [
            0.25,
            0.25,
            0.75,
            0.75
          ],
          "texture": "#0"
        },
        "east": {
          "uv": [
            0.25,
            0.25,
            0.75,
            0.75
          ],
          "texture": "#0"
        },
        "south": {
          "uv": [
            0.25,
            0.25,
            0.75,
            0.75
          ],
          "texture": "#0"
        },
        "west": {
          "uv": [
            0.25,
            0.25,
            0.75,
            0.75
          ],
          "texture": "#0"
        },
        "up": {
          "uv": [
            0.25,
            0.25,
            0.75,
            0.75
          ],
          "texture": "#0"
        },
        "down": {
          "uv": [
            0.25,
            0.25,
            0.75,
            0.75
          ],
          "texture": "#0"
        }
      }
    },
    {
      "name": "voxel",
      "from": [
        3.66667,
        1,
        8
      ],
      "to": [
        6,
        1.33333,
        8.66667
      ],
      "faces": {
        "north": {
          "uv": [
            0.25,
            0.25,
            0.75,
            0.75
          ],
          "texture": "#0"
        },
        "east": {
          "uv": [
            0.25,
            0.25,
            0.75,
            0.75
          ],
          "texture": "#0"
        },
        "south": {
          "uv": [
            0.25,
            0.25,
            0.75,
            0.75
          ],
          "texture": "#0"
        },
        "west": {
          "uv": [
            0.25,
            0.25,
            0.75,
            0.75
          ],
          "texture": "#0"
        },
        "up": {
          "uv": [
            0.25,
            0.25,
            0.75,
            0.75
          ],
          "texture": "#0"
        },
        "down": {
          "uv": [
            0.25,
            0.25,
            0.75,
            0.75
          ],
          "texture": "#0"
        }
      }
    },
    {
      "name": "voxel",
      "from": [
        2.33333,
        0.66667,
        8
      ],
      "to": [
        6,
        1,
        8.66667
      ],
      "faces": {
        "north": {
          "uv": [
            0.25,
            0.25,
            0.75,
            0.75
          ],
          "texture": "#0"
        },
        "east": {
          "uv": [
            0.25,
            0.25,
            0.75,
            0.75
          ],
          "texture": "#0"
        },
        "south": {
          "uv": [
            0.25,
            0.25,
            0.75,
            0.75
          ],
          "texture": "#0"
        },
        "west": {
          "uv": [
            0.25,
            0.25,
            0.75,
            0.75
          ],
          "texture": "#0"
        },
        "up": {
          "uv": [
            0.25,
            0.25,
            0.75,
            0.75
          ],
          "texture": "#0"
        },
        "down": {
          "uv": [
            0.25,
            0.25,
            0.75,
            0.75
          ],
          "texture": "#0"
        }
      }
    },
    {
      "name": "voxel",
      "from": [
        0.66667,
        0.33333,
        8
      ],
      "to": [
        6,
        0.66667,
        8.66667
      ],
      "faces": {
        "north": {
          "uv": [
            0.25,
            0.25,
            0.75,
            0.75
          ],
          "texture": "#0"
        },
        "east": {
          "uv": [
            0.25,
            0.25,
            0.75,
            0.75
          ],
          "texture": "#0"
        },
        "south": {
          "uv": [
            0.25,
            0.25,
            0.75,
            0.75
          ],
          "texture": "#0"
        },
        "west": {
          "uv": [
            0.25,
            0.25,
            0.75,
            0.75
          ],
          "texture": "#0"
        },
        "up": {
          "uv": [
            0.25,
            0.25,
            0.75,
            0.75
          ],
          "texture": "#0"
        },
        "down": {
          "uv": [
            0.25,
            0.25,
            0.75,
            0.75
          ],
          "texture": "#0"
        }
      }
    }
  ],
  "display": {
    "thirdperson_righthand": {
      "rotation": [
        -98,
        -90,
        -96.75
      ],
      "translation": [
        -1.25,
        8,
        5.25
      ]
    }
  },
  "groups": [
    {
      "name": "voxel_file",
      "origin": [
        8,
        8,
        8
      ],
      "color": 0,
      "children": [
        0,
        1,
        2,
        3,
        4,
        5,
        6,
        7,
        8,
        9,
        10,
        11,
        12,
        13,
        14,
        15,
        16,
        17,
        18,
        19,
        20,
        21,
        22,
        23,
        24,
        25,
        26,
        27,
        28,
        29,
        30,
        31,
        32,
        33,
        34,
        35,
        36
      ]
    }
  ]
}