{
  "group": "vibranium",
  "type": "minecraft:crafting_shaped",
  "pattern": [
    "0 2",
    "345",
    "678"
  ],
  "key": {
    "0": {
      "item": "vibranium:vibranium_fiber_padding"
    },
    "2": {
      "item": "vibranium:vibranium_fiber_padding"
    },
    "3": {
      "item": "vibranium:vibranium_fiber_padding"
    },
    "4": {
      "item": "vibranium:heart_shaped_herb"
    },
    "5": {
      "item": "vibranium:vibranium_fiber_padding"
    },
    "6": {
      "item": "vibranium:vibranium_fiber_padding"
    },
    "7": {
      "item": "vibranium:vibranium_fiber_padding"
    },
    "8": {
      "item": "vibranium:vibranium_fiber_padding"
    }
  },
  "result": {
    "item": "vibranium:black_panther_mk_1_chestplate",
    "count": 1
  }
}